breakout_phase-20000001,新锋行录I-I
breakout_phase-10000001,击退16个敌人//n<#INFO#$COUNT$>
breakout_phase-20000002,新锋行录I-II
breakout_phase-10000002,击退3个残暴游荡者//n<#INFO#$COUNT$>
breakout_phase-20000003,新锋行录I-III
breakout_phase-10000003,获得医疗补给箱//n<#INFO#$COUNT$>
breakout_phase-20000004,新锋行录II-I
breakout_phase-10000004,从道具箱中获得1个燃烧瓶//n<#INFO#$COUNT$>
breakout_phase-20000005,新锋行录II-II
breakout_phase-10000005,击退20个敌人//n<#INFO#$COUNT$>
breakout_phase-20000006,新锋行录II-III
breakout_phase-10000006,击退3个精英多斯打手//n<#INFO#$COUNT$>
breakout_phase-20000007,新锋行录II-IV
breakout_phase-10000007,击退委托人//n<#INFO#$COUNT$>
breakout_phase-20000008,新锋行录III-I
breakout_phase-10000008,击退15个敌人//n<#INFO#$COUNT$>
breakout_phase-20000009,新锋行录III-II
breakout_phase-10000009,拾取1个金狮雕像//n<#INFO#$COUNT$>
breakout_phase-20000010,新锋行录III-III
breakout_phase-10000010,攻破巨大障碍物//n<#INFO#$COUNT$>
breakout_phase-20000011,新锋行录III-IV
breakout_phase-10000011,击退神秘队员//n<#INFO#$COUNT$>
breakout_phase-20000012,新锋行录III-V
breakout_phase-10000012,获得装有证据的保险箱//n<#INFO#$COUNT$>
