{
    "missionId": 500306,
    "canIgnoreAmmoMre": false,
    "teamSupplyLimit": -1,
    "sangvisteamSupplyLimit": -1,
    "vehicleSuppkyLimit": 1,
    "squadSupplyLimit": -1,
    "AssistTeamLimit": 0,
    "autoBattleAllSteps": []
}