()||<BIN>9</BIN><黑屏1>0,10</黑屏1><BGM>BGM_Empty</BGM>:
()||<黑屏2><BIN>1</BIN>:
NPC-P90_AB(0)<Speaker>P90</Speaker><Position>0,-50</Position>||:这么多敌人……黑金的营地果然危险。
NPC-P90_AB(0)<Speaker>P90</Speaker><Position>0,-50</Position>||:大家要做好充足的准备啊！
()||<黑屏1>: