%!PS-Adobe-3.0 EPSF-3.0
%%BoundingBox: 36 -14 593 731
%%Pages: 0
%%Title: uni0417 from Novecentowide-Bold
%%Creator: FontForge
%%Author: orato
%%CreationDate: 5:05 17-9-2022
%%EndComments
%%BeginPreview: 55 73 4 73
%0000000000000000000000256789A976541000000000000000000000
%00000000000000000037BEFFFFFFFFFFFFFD96200000000000000000
%00000000000000016CFFFFFFFFFFFFFFFFFFFFFB5000000000000000
%000000000000018EFFFFFFFFFFFFFFFFFFFFFFFFFD70000000000000
%0000000000005EFFFFFFFFFFFFFFFFFFFFFFFFFFFFFC300000000000
%00000000002BFFFFFFFFFFFFFFFFFFFFFFFFFFFFFFFFF70000000000
%0000000003DFFFFFFFFFFFFFFFFFFFFFFFFFFFFFFFFFFFB000000000
%000000004EFFFFFFFFFFFFFFFFFFFFFFFFFFFFFFFFFFFFFA00000000
%00000004FFFFFFFFFFFFFFFFFFFFFFFFFFFFFFFFFFFFFFFFA0000000
%0000002EFFFFFFFFFFFFFFFFFFFFFFFFFFFFFFFFFFFFFFFFF7000000
%000001DFFFFFFFFFFFFFFFFFFFFFFFFFFFFFFFFFFFFFFFFFFE200000
%00000AFFFFFFFFFFFFFFFFFFFFFFFFFFFFFFFFFFFFFFFFFFFFA00000
%00005FFFFFFFFFFFFFFFFFFFFFFFFFFFFFFFFFFFFFFFFFFFFFF40000
%0000DFFFFFFFFFFFFFFFFFFFFFFFFFFFFFFFFFFFFFFFFFFFFFFA0000
%0006FFFFFFFFFFFFFFFFFFFFFFEEFFFFFFFFFFFFFFFFFFFFFFFE0000
%000EFFFFFFFFFFFFFFFFFFD73000037DFFFFFFFFFFFFFFFFFFFF4000
%005FFFFFFFFFFFFFFFFFE600000000007EFFFFFFFFFFFFFFFFFF9000
%00AFFFFFFFFFFFFFFFFE30000000000002DFFFFFFFFFFFFFFFFFB000
%01EFFFFFFFFFFFFFFFF4000000000000004FFFFFFFFFFFFFFFFFD000
%04FFFFFFFFFFFFFFFF70000000000000000BFFFFFFFFFFFFFFFFE000
%00148CFFFFFFFFFFFD000000000000000006FFFFFFFFFFFFFFFFF100
%000000159DFFFFFFF6000000000000000004FFFFFFFFFFFFFFFFF000
%000000000026AEFFE0000000000000000004FFFFFFFFFFFFFFFFD000
%000000000000003760000000000000000006FFFFFFFFFFFFFFFFC000
%00000000000000000000000000000000000BFFFFFFFFFFFFFFFF8000
%00000000000000000000000000000000003FFFFFFFFFFFFFFFFF3000
%0000000000000000000000000000000001DFFFFFFFFFFFFFFFFD0000
%000000000000000000000000000000004DFFFFFFFFFFFFFFFFF50000
%0000000000000000000000000000136CFFFFFFFFFFFFFFFFFFA00000
%000000000000000000000CEEEEEFFFFFFFFFFFFFFFFFFFFFFD200000
%000000000000000000000CFFFFFFFFFFFFFFFFFFFFFFFFFFE2000000
%000000000000000000000CFFFFFFFFFFFFFFFFFFFFFFFFFD30000000
%000000000000000000000CFFFFFFFFFFFFFFFFFFFFFFFFA100000000
%000000000000000000000CFFFFFFFFFFFFFFFFFFFFFFC40000000000
%000000000000000000000CFFFFFFFFFFFFFFFFFFFD94000000000000
%000000000000000000000CFFFFFFFFFFFFFFFFFEB973000000000000
%000000000000000000000CFFFFFFFFFFFFFFFFFFFFFFE81000000000
%000000000000000000000CFFFFFFFFFFFFFFFFFFFFFFFFE700000000
%000000000000000000000CFFFFFFFFFFFFFFFFFFFFFFFFFFB1000000
%000000000000000000000CFFFFFFFFFFFFFFFFFFFFFFFFFFFD200000
%000000000000000000000CFFFFFFFFFFFFFFFFFFFFFFFFFFFFC10000
%000000000000000000000CFFFFFFFFFFFFFFFFFFFFFFFFFFFFFA0000
%0000000000000000000000000001237BFFFFFFFFFFFFFFFFFFFF4000
%000000000000000000000000000000002AFFFFFFFFFFFFFFFFFFC000
%00000000000000000000000000000000005FFFFFFFFFFFFFFFFFF300
%000000000000000000000000000000000006FFFFFFFFFFFFFFFFF800
%000000000000000000000000000000000000BFFFFFFFFFFFFFFFFD00
%0000000000000000000000000000000000005FFFFFFFFFFFFFFFFF10
%0000000000000000000000000000000000001FFFFFFFFFFFFFFFFF20
%00000000000026A9000000000000000000000FFFFFFFFFFFFFFFFF40
%00000000149DFFFF200000000000000000001FFFFFFFFFFFFFFFFF40
%0000037BFFFFFFFFA00000000000000000004FFFFFFFFFFFFFFFFF30
%0159DFFFFFFFFFFFF30000000000000000009FFFFFFFFFFFFFFFFF10
%5FFFFFFFFFFFFFFFFE200000000000000003FFFFFFFFFFFFFFFFFF00
%1FFFFFFFFFFFFFFFFFD2000000000000001CFFFFFFFFFFFFFFFFFD00
%0AFFFFFFFFFFFFFFFFFD40000000000004DFFFFFFFFFFFFFFFFFFA00
%05FFFFFFFFFFFFFFFFFFFB5000000003BFFFFFFFFFFFFFFFFFFFF500
%00DFFFFFFFFFFFFFFFFFFFFEB9778ADFFFFFFFFFFFFFFFFFFFFFE000
%004FFFFFFFFFFFFFFFFFFFFFFFFFFFFFFFFFFFFFFFFFFFFFFFFFA000
%000AFFFFFFFFFFFFFFFFFFFFFFFFFFFFFFFFFFFFFFFFFFFFFFFF3000
%0002EFFFFFFFFFFFFFFFFFFFFFFFFFFFFFFFFFFFFFFFFFFFFFF90000
%00005FFFFFFFFFFFFFFFFFFFFFFFFFFFFFFFFFFFFFFFFFFFFFE10000
%000007FFFFFFFFFFFFFFFFFFFFFFFFFFFFFFFFFFFFFFFFFFFF600000
%0000009FFFFFFFFFFFFFFFFFFFFFFFFFFFFFFFFFFFFFFFFFF9000000
%00000008FFFFFFFFFFFFFFFFFFFFFFFFFFFFFFFFFFFFFFFF90000000
%000000006FFFFFFFFFFFFFFFFFFFFFFFFFFFFFFFFFFFFFF900000000
%0000000003EFFFFFFFFFFFFFFFFFFFFFFFFFFFFFFFFFFF8000000000
%000000000019FFFFFFFFFFFFFFFFFFFFFFFFFFFFFFFFD30000000000
%0000000000003BFFFFFFFFFFFFFFFFFFFFFFFFFFFFF8000000000000
%000000000000004AFFFFFFFFFFFFFFFFFFFFFFFFE810000000000000
%000000000000000017DFFFFFFFFFFFFFFFFFFFC60000000000000000
%0000000000000000000259CFFFFFFFFFFEB841000000000000000000
%00000000000000000000000012455432000000000000000000000000
%%EndPreview
%%EndProlog
%%Page "uni0417" 1
gsave newpath
gsave 	201 489 moveto
	 47 530 lineto
	 79 652 182 731 322 731 curveto
	 485 731 580 639 580 519 curveto
	 580 426 496 373 442 371 curveto
	 442 370 lineto
	 518 370 593 312 593 213 curveto
	 593 81 481 -14 322 -14 curveto
	 185 -14 65 70 36 184 curveto
	 191 227 lineto
	 207 176 249 139 314 139 curveto
	 366 139 414 169 414 222 curveto
	 414 268 372 300 310 300 curveto
	 250 300 lineto
	 250 434 lineto
	 310 434 lineto
	 372 434 401 467 401 507 curveto
	 401 551 364 580 310 580 curveto
	 257 580 224 552 201 489 curveto
	closepath
grestore
fill grestore
%%EOF
