%!PS-Adobe-3.0 EPSF-3.0
%%BoundingBox: 80 0 591 717
%%Pages: 0
%%Title: uni0413 from Novecentowide-Bold
%%Creator: FontForge
%%Author: orato
%%CreationDate: 5:05 17-9-2022
%%EndComments
%%BeginPreview: 52 73 4 73
%2222222222222222222222222222222222222222222222222221
%EFFFFFFFFFFFFFFFFFFFFFFFFFFFFFFFFFFFFFFFFFFFFFFFFFF7
%EFFFFFFFFFFFFFFFFFFFFFFFFFFFFFFFFFFFFFFFFFFFFFFFFFF7
%EFFFFFFFFFFFFFFFFFFFFFFFFFFFFFFFFFFFFFFFFFFFFFFFFFF7
%EFFFFFFFFFFFFFFFFFFFFFFFFFFFFFFFFFFFFFFFFFFFFFFFFFF7
%EFFFFFFFFFFFFFFFFFFFFFFFFFFFFFFFFFFFFFFFFFFFFFFFFFF7
%EFFFFFFFFFFFFFFFFFFFFFFFFFFFFFFFFFFFFFFFFFFFFFFFFFF7
%EFFFFFFFFFFFFFFFFFFFFFFFFFFFFFFFFFFFFFFFFFFFFFFFFFF7
%EFFFFFFFFFFFFFFFFFFFFFFFFFFFFFFFFFFFFFFFFFFFFFFFFFF7
%EFFFFFFFFFFFFFFFFFFFFFFFFFFFFFFFFFFFFFFFFFFFFFFFFFF7
%EFFFFFFFFFFFFFFFFFFFFFFFFFFFFFFFFFFFFFFFFFFFFFFFFFF7
%EFFFFFFFFFFFFFFFFFFFFFFFFFFFFFFFFFFFFFFFFFFFFFFFFFF7
%EFFFFFFFFFFFFFFFFFFFFFFFFFFFFFFFFFFFFFFFFFFFFFFFFFF7
%EFFFFFFFFFFFFFFFFFFFFFFFFFFFFFFFFFFFFFFFFFFFFFFFFFF7
%EFFFFFFFFFFFFFFFFFFFFFFFFFFFFFFFFFFFFFFFFFFFFFFFFFF7
%EFFFFFFFFFFFFFFFFFFFFFFFFFFFFFFFFFFFFFFFFFFFFFFFFFF7
%EFFFFFFFFFFFFFFFFFFFFFFFFFFFFFFFFFFFFFFFFFFFFFFFFFF7
%EFFFFFFFFFFFFFFFF61111111111111111111111111111111111
%EFFFFFFFFFFFFFFFF50000000000000000000000000000000000
%EFFFFFFFFFFFFFFFF50000000000000000000000000000000000
%EFFFFFFFFFFFFFFFF50000000000000000000000000000000000
%EFFFFFFFFFFFFFFFF50000000000000000000000000000000000
%EFFFFFFFFFFFFFFFF50000000000000000000000000000000000
%EFFFFFFFFFFFFFFFF50000000000000000000000000000000000
%EFFFFFFFFFFFFFFFF50000000000000000000000000000000000
%EFFFFFFFFFFFFFFFF50000000000000000000000000000000000
%EFFFFFFFFFFFFFFFF50000000000000000000000000000000000
%EFFFFFFFFFFFFFFFF50000000000000000000000000000000000
%EFFFFFFFFFFFFFFFF50000000000000000000000000000000000
%EFFFFFFFFFFFFFFFF50000000000000000000000000000000000
%EFFFFFFFFFFFFFFFF50000000000000000000000000000000000
%EFFFFFFFFFFFFFFFF50000000000000000000000000000000000
%EFFFFFFFFFFFFFFFF50000000000000000000000000000000000
%EFFFFFFFFFFFFFFFF50000000000000000000000000000000000
%EFFFFFFFFFFFFFFFF50000000000000000000000000000000000
%EFFFFFFFFFFFFFFFF50000000000000000000000000000000000
%EFFFFFFFFFFFFFFFF50000000000000000000000000000000000
%EFFFFFFFFFFFFFFFF50000000000000000000000000000000000
%EFFFFFFFFFFFFFFFF50000000000000000000000000000000000
%EFFFFFFFFFFFFFFFF50000000000000000000000000000000000
%EFFFFFFFFFFFFFFFF50000000000000000000000000000000000
%EFFFFFFFFFFFFFFFF50000000000000000000000000000000000
%EFFFFFFFFFFFFFFFF50000000000000000000000000000000000
%EFFFFFFFFFFFFFFFF50000000000000000000000000000000000
%EFFFFFFFFFFFFFFFF50000000000000000000000000000000000
%EFFFFFFFFFFFFFFFF50000000000000000000000000000000000
%EFFFFFFFFFFFFFFFF50000000000000000000000000000000000
%EFFFFFFFFFFFFFFFF50000000000000000000000000000000000
%EFFFFFFFFFFFFFFFF50000000000000000000000000000000000
%EFFFFFFFFFFFFFFFF50000000000000000000000000000000000
%EFFFFFFFFFFFFFFFF50000000000000000000000000000000000
%EFFFFFFFFFFFFFFFF50000000000000000000000000000000000
%EFFFFFFFFFFFFFFFF50000000000000000000000000000000000
%EFFFFFFFFFFFFFFFF50000000000000000000000000000000000
%EFFFFFFFFFFFFFFFF50000000000000000000000000000000000
%EFFFFFFFFFFFFFFFF50000000000000000000000000000000000
%EFFFFFFFFFFFFFFFF50000000000000000000000000000000000
%EFFFFFFFFFFFFFFFF50000000000000000000000000000000000
%EFFFFFFFFFFFFFFFF50000000000000000000000000000000000
%EFFFFFFFFFFFFFFFF50000000000000000000000000000000000
%EFFFFFFFFFFFFFFFF50000000000000000000000000000000000
%EFFFFFFFFFFFFFFFF50000000000000000000000000000000000
%EFFFFFFFFFFFFFFFF50000000000000000000000000000000000
%EFFFFFFFFFFFFFFFF50000000000000000000000000000000000
%EFFFFFFFFFFFFFFFF50000000000000000000000000000000000
%EFFFFFFFFFFFFFFFF50000000000000000000000000000000000
%EFFFFFFFFFFFFFFFF50000000000000000000000000000000000
%EFFFFFFFFFFFFFFFF50000000000000000000000000000000000
%EFFFFFFFFFFFFFFFF50000000000000000000000000000000000
%EFFFFFFFFFFFFFFFF50000000000000000000000000000000000
%EFFFFFFFFFFFFFFFF50000000000000000000000000000000000
%EFFFFFFFFFFFFFFFF50000000000000000000000000000000000
%EFFFFFFFFFFFFFFFF50000000000000000000000000000000000
%%EndPreview
%%EndProlog
%%Page "uni0413" 1
gsave newpath
	252 556 moveto
	 252 0 lineto
	 80 0 lineto
	 80 717 lineto
	 591 717 lineto
	 591 556 lineto
	 252 556 lineto
	closepath
fill grestore
%%EOF
