%!PS-Adobe-3.0 EPSF-3.0
%%BoundingBox: 80 0 636 717
%%Pages: 0
%%Title: uni0427 from Novecentowide-Bold
%%Creator: FontForge
%%Author: orato
%%CreationDate: 5:07 17-9-2022
%%EndComments
%%BeginPreview: 56 73 4 73
%22222222222222222200000000000000000000122222222222222222
%EFFFFFFFFFFFFFFFFF100000000000000000005FFFFFFFFFFFFFFFFF
%EFFFFFFFFFFFFFFFFF100000000000000000005FFFFFFFFFFFFFFFFF
%EFFFFFFFFFFFFFFFFF100000000000000000005FFFFFFFFFFFFFFFFF
%EFFFFFFFFFFFFFFFFF100000000000000000005FFFFFFFFFFFFFFFFF
%EFFFFFFFFFFFFFFFFF100000000000000000005FFFFFFFFFFFFFFFFF
%EFFFFFFFFFFFFFFFFF100000000000000000005FFFFFFFFFFFFFFFFF
%EFFFFFFFFFFFFFFFFF100000000000000000005FFFFFFFFFFFFFFFFF
%EFFFFFFFFFFFFFFFFF100000000000000000005FFFFFFFFFFFFFFFFF
%EFFFFFFFFFFFFFFFFF100000000000000000005FFFFFFFFFFFFFFFFF
%EFFFFFFFFFFFFFFFFF100000000000000000005FFFFFFFFFFFFFFFFF
%EFFFFFFFFFFFFFFFFF100000000000000000005FFFFFFFFFFFFFFFFF
%EFFFFFFFFFFFFFFFFF100000000000000000005FFFFFFFFFFFFFFFFF
%EFFFFFFFFFFFFFFFFF100000000000000000005FFFFFFFFFFFFFFFFF
%EFFFFFFFFFFFFFFFFF100000000000000000005FFFFFFFFFFFFFFFFF
%EFFFFFFFFFFFFFFFFF100000000000000000005FFFFFFFFFFFFFFFFF
%EFFFFFFFFFFFFFFFFF100000000000000000005FFFFFFFFFFFFFFFFF
%EFFFFFFFFFFFFFFFFF100000000000000000005FFFFFFFFFFFFFFFFF
%EFFFFFFFFFFFFFFFFF100000000000000000005FFFFFFFFFFFFFFFFF
%EFFFFFFFFFFFFFFFFF100000000000000000005FFFFFFFFFFFFFFFFF
%EFFFFFFFFFFFFFFFFF100000000000000000005FFFFFFFFFFFFFFFFF
%EFFFFFFFFFFFFFFFFF100000000000000000005FFFFFFFFFFFFFFFFF
%EFFFFFFFFFFFFFFFFF100000000000000000005FFFFFFFFFFFFFFFFF
%EFFFFFFFFFFFFFFFFF100000000000000000005FFFFFFFFFFFFFFFFF
%EFFFFFFFFFFFFFFFFF100000000000000000005FFFFFFFFFFFFFFFFF
%EFFFFFFFFFFFFFFFFF100000000000000000005FFFFFFFFFFFFFFFFF
%DFFFFFFFFFFFFFFFFF200000000000000000005FFFFFFFFFFFFFFFFF
%CFFFFFFFFFFFFFFFFF400000000000000000005FFFFFFFFFFFFFFFFF
%BFFFFFFFFFFFFFFFFF800000000000000000005FFFFFFFFFFFFFFFFF
%9FFFFFFFFFFFFFFFFFE10000000000000000005FFFFFFFFFFFFFFFFF
%8FFFFFFFFFFFFFFFFFF90000000000000000005FFFFFFFFFFFFFFFFF
%5FFFFFFFFFFFFFFFFFFF8000000000000000005FFFFFFFFFFFFFFFFF
%1FFFFFFFFFFFFFFFFFFFFB20000000000000005FFFFFFFFFFFFFFFFF
%0CFFFFFFFFFFFFFFFFFFFFFB620000000000005FFFFFFFFFFFFFFFFF
%07FFFFFFFFFFFFFFFFFFFFFFFFFEDCCCCCCCCCDFFFFFFFFFFFFFFFFF
%03FFFFFFFFFFFFFFFFFFFFFFFFFFFFFFFFFFFFFFFFFFFFFFFFFFFFFF
%00BFFFFFFFFFFFFFFFFFFFFFFFFFFFFFFFFFFFFFFFFFFFFFFFFFFFFF
%003FFFFFFFFFFFFFFFFFFFFFFFFFFFFFFFFFFFFFFFFFFFFFFFFFFFFF
%000AFFFFFFFFFFFFFFFFFFFFFFFFFFFFFFFFFFFFFFFFFFFFFFFFFFFF
%0002EFFFFFFFFFFFFFFFFFFFFFFFFFFFFFFFFFFFFFFFFFFFFFFFFFFF
%00006FFFFFFFFFFFFFFFFFFFFFFFFFFFFFFFFFFFFFFFFFFFFFFFFFFF
%000008FFFFFFFFFFFFFFFFFFFFFFFFFFFFFFFFFFFFFFFFFFFFFFFFFF
%0000009FFFFFFFFFFFFFFFFFFFFFFFFFFFFFFFFFFFFFFFFFFFFFFFFF
%0000000AFFFFFFFFFFFFFFFFFFFFFFFFFFFFFFFFFFFFFFFFFFFFFFFF
%000000007FFFFFFFFFFFFFFFFFFFFFFFFFFFFFFFFFFFFFFFFFFFFFFF
%0000000003CFFFFFFFFFFFFFFFFFFFFFFFFFFFFFFFFFFFFFFFFFFFFF
%000000000008EFFFFFFFFFFFFFFFFFFFFFFFFFFFFFFFFFFFFFFFFFFF
%00000000000016DFFFFFFFFFFFFFFFFFFFFFFFFFFFFFFFFFFFFFFFFF
%0000000000000004AEFFFFFFFFFFFFFFFFFFFFFFFFFFFFFFFFFFFFFF
%000000000000000000259CFFFFFFFFFFFFFFFFFFFFFFFFFFFFFFFFFF
%000000000000000000000001234566666666669FFFFFFFFFFFFFFFFF
%000000000000000000000000000000000000005FFFFFFFFFFFFFFFFF
%000000000000000000000000000000000000005FFFFFFFFFFFFFFFFF
%000000000000000000000000000000000000005FFFFFFFFFFFFFFFFF
%000000000000000000000000000000000000005FFFFFFFFFFFFFFFFF
%000000000000000000000000000000000000005FFFFFFFFFFFFFFFFF
%000000000000000000000000000000000000005FFFFFFFFFFFFFFFFF
%000000000000000000000000000000000000005FFFFFFFFFFFFFFFFF
%000000000000000000000000000000000000005FFFFFFFFFFFFFFFFF
%000000000000000000000000000000000000005FFFFFFFFFFFFFFFFF
%000000000000000000000000000000000000005FFFFFFFFFFFFFFFFF
%000000000000000000000000000000000000005FFFFFFFFFFFFFFFFF
%000000000000000000000000000000000000005FFFFFFFFFFFFFFFFF
%000000000000000000000000000000000000005FFFFFFFFFFFFFFFFF
%000000000000000000000000000000000000005FFFFFFFFFFFFFFFFF
%000000000000000000000000000000000000005FFFFFFFFFFFFFFFFF
%000000000000000000000000000000000000005FFFFFFFFFFFFFFFFF
%000000000000000000000000000000000000005FFFFFFFFFFFFFFFFF
%000000000000000000000000000000000000005FFFFFFFFFFFFFFFFF
%000000000000000000000000000000000000005FFFFFFFFFFFFFFFFF
%000000000000000000000000000000000000005FFFFFFFFFFFFFFFFF
%000000000000000000000000000000000000005FFFFFFFFFFFFFFFFF
%000000000000000000000000000000000000005FFFFFFFFFFFFFFFFF
%%EndPreview
%%EndProlog
%%Page "uni0427" 1
gsave newpath
	464 386 moveto
	 464 717 lineto
	 636 717 lineto
	 636 0 lineto
	 464 0 lineto
	 464 225 lineto
	 362 225 lineto
	 186 225 80 317 80 471 curveto
	 80 717 lineto
	 259 717 lineto
	 259 471 lineto
	 259 418 299 386 366 386 curveto
	 464 386 lineto
	closepath
fill grestore
%%EOF
