%!PS-Adobe-3.0 EPSF-3.0
%%BoundingBox: 80 0 723 995
%%Pages: 0
%%Title: uni0419 from Novecentowide-Bold
%%Creator: FontForge
%%Author: orato
%%CreationDate: 5:06 17-9-2022
%%EndComments
%%BeginPreview: 48 72 4 72
%000000000000001A2000000000000002A200000000000000
%00000000000001DFE30000000000003EFD20000000000000
%0000000000001CFFFF600000000006FFFFD1000000000000
%000000000001CFFFFFF8000000008FFFFFFD100000000000
%00000000001CFFFFFFFFB100001BFFFFFFFFD10000000000
%0000000001CFFFFFFFFFFD2002DFFFFFFFFFFC1000000000
%0000000002DFFFFFFFFFFFE44EFFFFFFFFFFFE3000000000
%00000000002CFFFFFFFFFFFFFFFFFFFFFFFFD20000000000
%000000000001BFFFFFFFFFFFFFFFFFFFFFFB100000000000
%00000000000009FFFFFFFFFFFFFFFFFFFF90000000000000
%000000000000006FFFFFFFFFFFFFFFFFF700000000000000
%0000000000000004EFFFFFFFFFFFFFFE5000000000000000
%00000000000000003DFFFFFFFFFFFFE30000000000000000
%000000000000000001CFFFFFFFFFFC200000000000000000
%0000000000000000001AFFFFFFFFA1000000000000000000
%000000000000000000008FFFFFF800000000000000000000
%0000000000000000000006FFFF6000000000000000000000
%00000000000000000000004EE40000000000000000000000
%000000000000000000000003200000000000000000000000
%000000000000000000000000000000000000000000000000
%3CCCCCCCCCCCC30000000000000000000009CCCCCCCCCCC3
%3FFFFFFFFFFFF3000000000000000000006FFFFFFFFFFFF4
%3FFFFFFFFFFFF300000000000000000003FFFFFFFFFFFFF4
%3FFFFFFFFFFFF30000000000000000001DFFFFFFFFFFFFF4
%3FFFFFFFFFFFF30000000000000000009FFFFFFFFFFFFFF4
%3FFFFFFFFFFFF3000000000000000005FFFFFFFFFFFFFFF4
%3FFFFFFFFFFFF300000000000000002EFFFFFFFFFFFFFFF4
%3FFFFFFFFFFFF30000000000000000CFFFFFFFFFFFFFFFF4
%3FFFFFFFFFFFF30000000000000008FFFFFFFFFFFFFFFFF4
%3FFFFFFFFFFFF3000000000000004FFFFFFFFFFFFFFFFFF4
%3FFFFFFFFFFFF300000000000002EFFFFFFFFFFFFFFFFFF4
%3FFFFFFFFFFFF30000000000000BFFFFFFFFFFFFFFFFFFF4
%3FFFFFFFFFFFF30000000000007FFFFFFFFFFFFFFFFFFFF4
%3FFFFFFFFFFFF3000000000004FFFFFFFFFFFFFFFFFFFFF4
%3FFFFFFFFFFFF300000000001DFFFFFFFFFFFFFFFFFFFFF4
%3FFFFFFFFFFFF30000000000AFFFFFFFFFFFFFFFFFFFFFF4
%3FFFFFFFFFFFF30000000006FFFFFFFFFFFFFFFFFFFFFFF4
%3FFFFFFFFFFFF3000000003FFFFFFFFFFFFFFFFFFFFFFFF4
%3FFFFFFFFFFFF300000001DFFFFFFFFFFFFFFFFFFFFFFFF4
%3FFFFFFFFFFFF200000009FFFFFFFFFFFFFFFFFFFFFFFFF4
%3FFFFFFFFFFFF20000005FFFFFFFFFFFFFFFFFFFFFFFFFF4
%3FFFFFFFFFFFF2000002EFFFFFFFFFFFFFBFFFFFFFFFFFF4
%3FFFFFFFFFFFF200000CFFFFFFFFFFFFFD2FFFFFFFFFFFF4
%3FFFFFFFFFFFF200009FFFFFFFFFFFFFF32FFFFFFFFFFFF4
%3FFFFFFFFFFFF20005FFFFFFFFFFFFFF602FFFFFFFFFFFF4
%3FFFFFFFFFFFF2002EFFFFFFFFFFFFFB002FFFFFFFFFFFF4
%3FFFFFFFFFFFF200BFFFFFFFFFFFFFE1002FFFFFFFFFFFF4
%3FFFFFFFFFFFF208FFFFFFFFFFFFFF40002FFFFFFFFFFFF4
%3FFFFFFFFFFFF24FFFFFFFFFFFFFF800002FFFFFFFFFFFF4
%3FFFFFFFFFFFF3DFFFFFFFFFFFFFC000002FFFFFFFFFFFF4
%3FFFFFFFFFFFFCFFFFFFFFFFFFFE2000002FFFFFFFFFFFF4
%3FFFFFFFFFFFFFFFFFFFFFFFFFF50000002FFFFFFFFFFFF4
%3FFFFFFFFFFFFFFFFFFFFFFFFF900000002FFFFFFFFFFFF4
%3FFFFFFFFFFFFFFFFFFFFFFFFD100000002FFFFFFFFFFFF4
%3FFFFFFFFFFFFFFFFFFFFFFFF3000000002FFFFFFFFFFFF4
%3FFFFFFFFFFFFFFFFFFFFFFF70000000002FFFFFFFFFFFF4
%3FFFFFFFFFFFFFFFFFFFFFFB00000000002FFFFFFFFFFFF4
%3FFFFFFFFFFFFFFFFFFFFFE100000000002FFFFFFFFFFFF4
%3FFFFFFFFFFFFFFFFFFFFF4000000000002FFFFFFFFFFFF4
%3FFFFFFFFFFFFFFFFFFFF80000000000002FFFFFFFFFFFF4
%3FFFFFFFFFFFFFFFFFFFC00000000000002FFFFFFFFFFFF4
%3FFFFFFFFFFFFFFFFFFE200000000000002FFFFFFFFFFFF4
%3FFFFFFFFFFFFFFFFFF6000000000000002FFFFFFFFFFFF4
%3FFFFFFFFFFFFFFFFFA0000000000000003FFFFFFFFFFFF4
%3FFFFFFFFFFFFFFFFD10000000000000003FFFFFFFFFFFF4
%3FFFFFFFFFFFFFFFF300000000000000003FFFFFFFFFFFF4
%3FFFFFFFFFFFFFFF7000000000000000003FFFFFFFFFFFF4
%3FFFFFFFFFFFFFFB0000000000000000003FFFFFFFFFFFF4
%3FFFFFFFFFFFFFE20000000000000000003FFFFFFFFFFFF4
%3FFFFFFFFFFFFF500000000000000000003FFFFFFFFFFFF4
%3FFFFFFFFFFFF9000000000000000000003FFFFFFFFFFFF4
%3FFFFFFFFFFFC0000000000000000000003FFFFFFFFFFFF4
%%EndPreview
%%EndProlog
%%Page "uni0419" 1
gsave newpath
	603 911 moveto
	 401 740 lineto
	 201 911 lineto
	 283 995 lineto
	 401 897 lineto
	 520 995 lineto
	 603 911 lineto
	closepath
	252 717 moveto
	 251 296 lineto
	 252 296 lineto
	 561 717 lineto
	 723 717 lineto
	 723 0 lineto
	 551 0 lineto
	 552 426 lineto
	 551 426 lineto
	 242 0 lineto
	 80 0 lineto
	 80 717 lineto
	 252 717 lineto
	closepath
fill grestore
%%EOF
