%!PS-Adobe-3.0 EPSF-3.0
%%BoundingBox: 80 0 607 937
%%Pages: 0
%%Title: uni0401 from Novecentowide-Bold
%%Creator: FontForge
%%Author: orato
%%CreationDate: 5:07 17-9-2022
%%EndComments
%%BeginPreview: 41 73 4 73
%000000000131000000000000000000132000000000
%00000005DFFFD6000000000000003BFFFE80000000
%0000009FFFFFFFA0000000000005FFFFFFFD100000
%000005FFFFFFFFF600000000001EFFFFFFFFA00000
%00000EFFFFFFFFFE00000000009FFFFFFFFFF30000
%00002FFFFFFFFFFF2000000000CFFFFFFFFFF70000
%00005FFFFFFFFFFF5000000000EFFFFFFFFFF90000
%00003FFFFFFFFFFF3000000000CFFFFFFFFFF70000
%00000EFFFFFFFFFF00000000009FFFFFFFFFF40000
%000007FFFFFFFFF700000000002FFFFFFFFFB00000
%000000BFFFFFFFB0000000000006FFFFFFFE200000
%00000006EFFFE7000000000000004DFFFFA1000000
%000000000253000000000000000000243100000000
%000000000000000000000000000000000000000000
%000000000000000000000000000000000000000000
%000000000000000000000000000000000000000000
%000000000000000000000000000000000000000000
%455555555555555555555555555555555555555520
%CFFFFFFFFFFFFFFFFFFFFFFFFFFFFFFFFFFFFFFF50
%CFFFFFFFFFFFFFFFFFFFFFFFFFFFFFFFFFFFFFFF50
%CFFFFFFFFFFFFFFFFFFFFFFFFFFFFFFFFFFFFFFF50
%CFFFFFFFFFFFFFFFFFFFFFFFFFFFFFFFFFFFFFFF50
%CFFFFFFFFFFFFFFFFFFFFFFFFFFFFFFFFFFFFFFF50
%CFFFFFFFFFFFFFFFFFFFFFFFFFFFFFFFFFFFFFFF50
%CFFFFFFFFFFFFFFFFFFFFFFFFFFFFFFFFFFFFFFF50
%CFFFFFFFFFFFFFFFFFFFFFFFFFFFFFFFFFFFFFFF50
%CFFFFFFFFFFFFFFFFFFFFFFFFFFFFFFFFFFFFFFF50
%CFFFFFFFFFFFFFFFFFFFFFFFFFFFFFFFFFFFFFFF50
%CFFFFFFFFFFFFFFFFFFFFFFFFFFFFFFFFFFFFFFF50
%CFFFFFFFFFFFFFFFFFFFFFFFFFFFFFFFFFFFFFFF50
%CFFFFFFFFFFFF72222222222222222222222222210
%CFFFFFFFFFFFF70000000000000000000000000000
%CFFFFFFFFFFFF70000000000000000000000000000
%CFFFFFFFFFFFF70000000000000000000000000000
%CFFFFFFFFFFFF70000000000000000000000000000
%CFFFFFFFFFFFF70000000000000000000000000000
%CFFFFFFFFFFFF70000000000000000000000000000
%CFFFFFFFFFFFF70000000000000000000000000000
%CFFFFFFFFFFFF70000000000000000000000000000
%CFFFFFFFFFFFFDCCCCCCCCCCCCCCCCCCCC60000000
%CFFFFFFFFFFFFFFFFFFFFFFFFFFFFFFFFF80000000
%CFFFFFFFFFFFFFFFFFFFFFFFFFFFFFFFFF80000000
%CFFFFFFFFFFFFFFFFFFFFFFFFFFFFFFFFF80000000
%CFFFFFFFFFFFFFFFFFFFFFFFFFFFFFFFFF80000000
%CFFFFFFFFFFFFFFFFFFFFFFFFFFFFFFFFF80000000
%CFFFFFFFFFFFFFFFFFFFFFFFFFFFFFFFFF80000000
%CFFFFFFFFFFFFFFFFFFFFFFFFFFFFFFFFF80000000
%CFFFFFFFFFFFFFFFFFFFFFFFFFFFFFFFFF80000000
%CFFFFFFFFFFFFFFFFFFFFFFFFFFFFFFFFF80000000
%CFFFFFFFFFFFFFFFFFFFFFFFFFFFFFFFFF80000000
%CFFFFFFFFFFFFDCCCCCCCCCCCCCCCCCCCC60000000
%CFFFFFFFFFFFF70000000000000000000000000000
%CFFFFFFFFFFFF70000000000000000000000000000
%CFFFFFFFFFFFF70000000000000000000000000000
%CFFFFFFFFFFFF70000000000000000000000000000
%CFFFFFFFFFFFF70000000000000000000000000000
%CFFFFFFFFFFFF70000000000000000000000000000
%CFFFFFFFFFFFF70000000000000000000000000000
%CFFFFFFFFFFFF70000000000000000000000000000
%CFFFFFFFFFFFF70000000000000000000000000000
%CFFFFFFFFFFFFA6666666666666666666666666650
%CFFFFFFFFFFFFFFFFFFFFFFFFFFFFFFFFFFFFFFFC0
%CFFFFFFFFFFFFFFFFFFFFFFFFFFFFFFFFFFFFFFFC0
%CFFFFFFFFFFFFFFFFFFFFFFFFFFFFFFFFFFFFFFFC0
%CFFFFFFFFFFFFFFFFFFFFFFFFFFFFFFFFFFFFFFFC0
%CFFFFFFFFFFFFFFFFFFFFFFFFFFFFFFFFFFFFFFFC0
%CFFFFFFFFFFFFFFFFFFFFFFFFFFFFFFFFFFFFFFFC0
%CFFFFFFFFFFFFFFFFFFFFFFFFFFFFFFFFFFFFFFFC0
%CFFFFFFFFFFFFFFFFFFFFFFFFFFFFFFFFFFFFFFFC0
%CFFFFFFFFFFFFFFFFFFFFFFFFFFFFFFFFFFFFFFFC0
%CFFFFFFFFFFFFFFFFFFFFFFFFFFFFFFFFFFFFFFFC0
%CFFFFFFFFFFFFFFFFFFFFFFFFFFFFFFFFFFFFFFFC0
%CFFFFFFFFFFFFFFFFFFFFFFFFFFFFFFFFFFFFFFFC0
%%EndPreview
%%EndProlog
%%Page "uni0401" 1
gsave newpath
gsave 	215 786 moveto
	 172 786 138 819 138 861 curveto
	 138 903 172 937 215 937 curveto
	 257 937 290 903 290 861 curveto
	 290 819 257 786 215 786 curveto
	closepath
	490 786 moveto
	 447 786 415 819 415 861 curveto
	 415 903 447 937 490 937 curveto
	 532 937 566 903 566 861 curveto
	 566 819 532 786 490 786 curveto
	closepath
	252 161 moveto
	 607 161 lineto
	 607 0 lineto
	 80 0 lineto
	 80 717 lineto
	 601 717 lineto
	 601 556 lineto
	 252 556 lineto
	 252 438 lineto
	 525 438 lineto
	 525 288 lineto
	 252 288 lineto
	 252 161 lineto
	closepath
grestore
fill grestore
%%EOF
