%!PS-Adobe-3.0 EPSF-3.0
%%BoundingBox: 80 0 636 717
%%Pages: 0
%%Title: uni042C from Novecentowide-Bold
%%Creator: FontForge
%%Author: orato
%%CreationDate: 5:06 17-9-2022
%%EndComments
%%BeginPreview: 56 73 4 73
%22222222222222222100000000000000000000000000000000000000
%EFFFFFFFFFFFFFFFF500000000000000000000000000000000000000
%EFFFFFFFFFFFFFFFF500000000000000000000000000000000000000
%EFFFFFFFFFFFFFFFF500000000000000000000000000000000000000
%EFFFFFFFFFFFFFFFF500000000000000000000000000000000000000
%EFFFFFFFFFFFFFFFF500000000000000000000000000000000000000
%EFFFFFFFFFFFFFFFF500000000000000000000000000000000000000
%EFFFFFFFFFFFFFFFF500000000000000000000000000000000000000
%EFFFFFFFFFFFFFFFF500000000000000000000000000000000000000
%EFFFFFFFFFFFFFFFF500000000000000000000000000000000000000
%EFFFFFFFFFFFFFFFF500000000000000000000000000000000000000
%EFFFFFFFFFFFFFFFF500000000000000000000000000000000000000
%EFFFFFFFFFFFFFFFF500000000000000000000000000000000000000
%EFFFFFFFFFFFFFFFF500000000000000000000000000000000000000
%EFFFFFFFFFFFFFFFF500000000000000000000000000000000000000
%EFFFFFFFFFFFFFFFF500000000000000000000000000000000000000
%EFFFFFFFFFFFFFFFF500000000000000000000000000000000000000
%EFFFFFFFFFFFFFFFF500000000000000000000000000000000000000
%EFFFFFFFFFFFFFFFF500000000000000000000000000000000000000
%EFFFFFFFFFFFFFFFF500000000000000000000000000000000000000
%EFFFFFFFFFFFFFFFF500000000000000000000000000000000000000
%EFFFFFFFFFFFFFFFF500000000000000000000000000000000000000
%EFFFFFFFFFFFFFFFF500000000000000000000000000000000000000
%EFFFFFFFFFFFFFFFFA77777777776543210000000000000000000000
%EFFFFFFFFFFFFFFFFFFFFFFFFFFFFFFFFFDA73000000000000000000
%EFFFFFFFFFFFFFFFFFFFFFFFFFFFFFFFFFFFFFFB5000000000000000
%EFFFFFFFFFFFFFFFFFFFFFFFFFFFFFFFFFFFFFFFFD71000000000000
%EFFFFFFFFFFFFFFFFFFFFFFFFFFFFFFFFFFFFFFFFFFF910000000000
%EFFFFFFFFFFFFFFFFFFFFFFFFFFFFFFFFFFFFFFFFFFFFD3000000000
%EFFFFFFFFFFFFFFFFFFFFFFFFFFFFFFFFFFFFFFFFFFFFFF800000000
%EFFFFFFFFFFFFFFFFFFFFFFFFFFFFFFFFFFFFFFFFFFFFFFFB0000000
%EFFFFFFFFFFFFFFFFFFFFFFFFFFFFFFFFFFFFFFFFFFFFFFFFA000000
%EFFFFFFFFFFFFFFFFFFFFFFFFFFFFFFFFFFFFFFFFFFFFFFFFF900000
%EFFFFFFFFFFFFFFFFFFFFFFFFFFFFFFFFFFFFFFFFFFFFFFFFFF70000
%EFFFFFFFFFFFFFFFFFFFFFFFFFFFFFFFFFFFFFFFFFFFFFFFFFFF2000
%EFFFFFFFFFFFFFFFFFFFFFFFFFFFFFFFFFFFFFFFFFFFFFFFFFFFA000
%EFFFFFFFFFFFFFFFFFFFFFFFFFFFFFFFFFFFFFFFFFFFFFFFFFFFF400
%EFFFFFFFFFFFFFFFFFFFFFFFFFFFFFFFFFFFFFFFFFFFFFFFFFFFFC00
%EFFFFFFFFFFFFFFFFFFFFFFFFFFFFFFFFFFFFFFFFFFFFFFFFFFFFF30
%EFFFFFFFFFFFFFFFFCBBBBBBBBBBCDFFFFFFFFFFFFFFFFFFFFFFFF70
%EFFFFFFFFFFFFFFFF5000000000000149EFFFFFFFFFFFFFFFFFFFFC0
%EFFFFFFFFFFFFFFFF500000000000000019FFFFFFFFFFFFFFFFFFFF1
%EFFFFFFFFFFFFFFFF5000000000000000006FFFFFFFFFFFFFFFFFFF6
%EFFFFFFFFFFFFFFFF50000000000000000007FFFFFFFFFFFFFFFFFF8
%EFFFFFFFFFFFFFFFF50000000000000000000DFFFFFFFFFFFFFFFFF9
%EFFFFFFFFFFFFFFFF500000000000000000008FFFFFFFFFFFFFFFFFB
%EFFFFFFFFFFFFFFFF500000000000000000003FFFFFFFFFFFFFFFFFC
%EFFFFFFFFFFFFFFFF500000000000000000002FFFFFFFFFFFFFFFFFE
%EFFFFFFFFFFFFFFFF500000000000000000001FFFFFFFFFFFFFFFFFE
%EFFFFFFFFFFFFFFFF500000000000000000002FFFFFFFFFFFFFFFFFD
%EFFFFFFFFFFFFFFFF500000000000000000005FFFFFFFFFFFFFFFFFB
%EFFFFFFFFFFFFFFFF50000000000000000000AFFFFFFFFFFFFFFFFFA
%EFFFFFFFFFFFFFFFF50000000000000000003FFFFFFFFFFFFFFFFFF9
%EFFFFFFFFFFFFFFFF5000000000000000001CFFFFFFFFFFFFFFFFFF7
%EFFFFFFFFFFFFFFFF500000000000000002CFFFFFFFFFFFFFFFFFFF4
%EFFFFFFFFFFFFFFFF50000000000000017EFFFFFFFFFFFFFFFFFFFE0
%EFFFFFFFFFFFFFFFF73333333333458BFFFFFFFFFFFFFFFFFFFFFFA0
%EFFFFFFFFFFFFFFFFFFFFFFFFFFFFFFFFFFFFFFFFFFFFFFFFFFFFF50
%EFFFFFFFFFFFFFFFFFFFFFFFFFFFFFFFFFFFFFFFFFFFFFFFFFFFFF10
%EFFFFFFFFFFFFFFFFFFFFFFFFFFFFFFFFFFFFFFFFFFFFFFFFFFFF800
%EFFFFFFFFFFFFFFFFFFFFFFFFFFFFFFFFFFFFFFFFFFFFFFFFFFFE100
%EFFFFFFFFFFFFFFFFFFFFFFFFFFFFFFFFFFFFFFFFFFFFFFFFFFF6000
%EFFFFFFFFFFFFFFFFFFFFFFFFFFFFFFFFFFFFFFFFFFFFFFFFFFC0000
%EFFFFFFFFFFFFFFFFFFFFFFFFFFFFFFFFFFFFFFFFFFFFFFFFFE20000
%EFFFFFFFFFFFFFFFFFFFFFFFFFFFFFFFFFFFFFFFFFFFFFFFFE300000
%EFFFFFFFFFFFFFFFFFFFFFFFFFFFFFFFFFFFFFFFFFFFFFFFF4000000
%EFFFFFFFFFFFFFFFFFFFFFFFFFFFFFFFFFFFFFFFFFFFFFFE40000000
%EFFFFFFFFFFFFFFFFFFFFFFFFFFFFFFFFFFFFFFFFFFFFFB200000000
%EFFFFFFFFFFFFFFFFFFFFFFFFFFFFFFFFFFFFFFFFFFFE60000000000
%EFFFFFFFFFFFFFFFFFFFFFFFFFFFFFFFFFFFFFFFFFE9200000000000
%EFFFFFFFFFFFFFFFFFFFFFFFFFFFFFFFFFFFFFFFD710000000000000
%EFFFFFFFFFFFFFFFFFFFFFFFFFFFFFFFFFFFEB840000000000000000
%EFFFFFFFFFFFFFFFFFFFFFFFFFFFEDCBA96300000000000000000000
%%EndPreview
%%EndProlog
%%Page "uni042C" 1
gsave newpath
	80 0 moveto
	 80 717 lineto
	 252 717 lineto
	 252 492 lineto
	 353 492 lineto
	 529 492 636 400 636 246 curveto
	 636 92 529 0 353 0 curveto
	 80 0 lineto
	closepath
	252 331 moveto
	 252 161 lineto
	 350 161 lineto
	 417 161 457 193 457 246 curveto
	 457 299 417 331 350 331 curveto
	 252 331 lineto
	closepath
fill grestore
%%EOF
